{
  "_class": "group",
  "do_objectID": "A62DE6A7-8361-4602-9F2F-0FB5B1257D27",
  "exportOptions": {
    "_class": "exportOptions",
    "exportFormats": [
    ],
    "includedLayerIds": [
    ],
    "layerOptions": 0,
    "shouldTrim": false
  },
  "frame": {
    "_class": "rect",
    "constrainProportions": false,
    "height": 625,
    "width": 1459,
    "x": 343,
    "y": 154
  },
  "hasClickThrough": false,
  "isFlippedHorizontal": false,
  "isFlippedVertical": false,
  "isLocked": false,
  "isVisible": true,
  "layerListExpandedType": 0,
  "layers": [
    {
      "class": "group",
      "id": "9DAC20FD-6465-4B38-8EC5-959A3C2ABBA7"
    },
    {
      "class": "symbolInstance",
      "id": "FD95B0B1-8142-4F03-8DDF-F1FAC65276FE"
    },
    {
      "class": "symbolInstance",
      "id": "5C452287-6593-49C7-A3C5-095214C318FA"
    },
    {
      "class": "symbolInstance",
      "id": "57D99E1A-153A-44ED-ACE5-335D3325F5C4"
    },
    {
      "class": "symbolInstance",
      "id": "3B3F4050-74A5-4DD1-9A82-D48E74E59EB0"
    },
    {
      "class": "symbolInstance",
      "id": "32ED05C7-5B33-4798-914B-FCB20F8B557A"
    },
    {
      "class": "symbolInstance",
      "id": "CD66FEE2-DBDB-4DAC-984A-ABFC631EEFA4"
    },
    {
      "class": "symbolInstance",
      "id": "DBF76ABF-34F7-4838-9305-9C74E80FC0CE"
    },
    {
      "class": "symbolInstance",
      "id": "13F5D35D-A5EA-4DB3-A15D-5F94FBDCC4BA"
    },
    {
      "class": "symbolInstance",
      "id": "26FBA2A2-2FF6-4D98-A313-3C0C52B43771"
    },
    {
      "class": "symbolInstance",
      "id": "32BFF4C9-ED49-47E7-B654-B2D58B0AAABC"
    },
    {
      "class": "symbolInstance",
      "id": "922085B5-8F6B-4E14-8203-EC5607EFC632"
    },
    {
      "class": "symbolInstance",
      "id": "220AF58C-EB5B-42B0-86B2-663C60D7BDCC"
    },
    {
      "class": "symbolInstance",
      "id": "C406123D-1953-4DFE-B040-B37C6E3D0C78"
    },
    {
      "class": "symbolInstance",
      "id": "D9C22A45-3383-4590-A179-999894C44484"
    },
    {
      "class": "symbolInstance",
      "id": "8D92D73C-BF1E-4848-AB6F-D788584D905D"
    },
    {
      "class": "symbolInstance",
      "id": "B6212AC6-2A96-48E2-ADE9-FB49F6C47DD5"
    },
    {
      "class": "symbolInstance",
      "id": "E0C69DAE-3124-4155-895C-C3E318EDC175"
    },
    {
      "class": "symbolInstance",
      "id": "8502036E-C566-4EBA-A98F-94EF43006091"
    },
    {
      "class": "symbolInstance",
      "id": "E19A2F11-9B29-402D-8B8E-93BC2BBFB8AC"
    },
    {
      "class": "symbolInstance",
      "id": "6CED5919-4BB2-45A8-AF66-7CD1BCC983E6"
    },
    {
      "class": "symbolInstance",
      "id": "A0D99CCB-DCA9-45AE-8C99-1B11804904F9"
    },
    {
      "class": "symbolInstance",
      "id": "565A452C-3EFF-4848-8250-AF01C43BA36E"
    },
    {
      "class": "symbolInstance",
      "id": "A1548636-D0FC-4CE7-8D84-81D362D6AD7E"
    },
    {
      "class": "symbolInstance",
      "id": "9A325510-CE48-4162-ADA1-B780EC734D09"
    },
    {
      "class": "symbolInstance",
      "id": "745574F6-F611-4A35-855C-8EECEE202A49"
    },
    {
      "class": "symbolInstance",
      "id": "3F6AEA9F-B34C-4631-B64B-57DAE3967519"
    },
    {
      "class": "symbolInstance",
      "id": "F8C9AE63-1AFD-457B-AB92-465062FE85B5"
    },
    {
      "class": "symbolInstance",
      "id": "6FA3EB5E-7A74-4E0C-8177-3EA20E3DB0BA"
    },
    {
      "class": "symbolInstance",
      "id": "511B721B-7B76-4DA7-81C3-A175AFFB1F20"
    },
    {
      "class": "symbolInstance",
      "id": "9E3A4184-BE1C-4342-A283-BEB409CC4975"
    },
    {
      "class": "symbolInstance",
      "id": "32ADEAE4-6C86-492D-BB42-195B2636C4A7"
    },
    {
      "class": "symbolInstance",
      "id": "58E78CB3-D86D-4644-AEE4-3955DD6DCBBD"
    },
    {
      "class": "symbolInstance",
      "id": "46DBEB33-DA6B-4DE5-ABD6-7C9F9F8E17ED"
    },
    {
      "class": "symbolInstance",
      "id": "FB1CA447-4001-4F69-91AA-59509A097C7B"
    },
    {
      "class": "symbolInstance",
      "id": "7A03ACC7-EA87-41D3-ADA5-DC74ABCA62AB"
    },
    {
      "class": "symbolInstance",
      "id": "4AF45A70-1CBC-45FC-99B5-5077226C5303"
    },
    {
      "class": "symbolInstance",
      "id": "0D5D84B0-1796-4738-BC0C-5972B48700D7"
    },
    {
      "class": "symbolInstance",
      "id": "A9D3C660-0324-496E-A952-3B5F462A928E"
    },
    {
      "class": "symbolInstance",
      "id": "7CDB187A-AA78-485E-9BAF-FB692CE28FE4"
    },
    {
      "class": "symbolInstance",
      "id": "E281D0BA-E734-422C-A1FD-F5DADB7CF5B7"
    },
    {
      "class": "symbolInstance",
      "id": "F9D77289-9890-4AB2-ABEB-01DA0344A80E"
    },
    {
      "class": "symbolInstance",
      "id": "C64F78AC-4CD5-404E-BF99-B92DA1459394"
    },
    {
      "class": "symbolInstance",
      "id": "A079B1CD-C3D9-4911-8F89-A1D2EC139C90"
    },
    {
      "class": "symbolInstance",
      "id": "54305035-8A04-489C-A3F7-4F6E351C27E1"
    },
    {
      "class": "symbolInstance",
      "id": "0D680360-5C9C-45C4-B1CF-2166DD3122F7"
    },
    {
      "class": "symbolInstance",
      "id": "DDBA2920-52F2-47AB-89C8-6BAA73900B1D"
    },
    {
      "class": "symbolInstance",
      "id": "78E58E7B-2FCE-4FF8-AFD7-A5120AE62E66"
    },
    {
      "class": "symbolInstance",
      "id": "F458818D-92AD-4A5C-B1DF-CC4EA32DB487"
    },
    {
      "class": "symbolInstance",
      "id": "E7B5FBF5-77DA-48DB-AF6E-566D5C8592B1"
    },
    {
      "class": "symbolInstance",
      "id": "846E1894-B7EA-4436-B0BB-32B9F72DE67B"
    },
    {
      "class": "symbolInstance",
      "id": "EAAA5DC8-24EC-4D19-89A4-A06168EB5EAC"
    },
    {
      "class": "symbolInstance",
      "id": "16432371-60F4-4491-A3C5-2F741818445B"
    },
    {
      "class": "symbolInstance",
      "id": "CC1EC6E3-73BF-4E0A-A9E7-AA7958B622C2"
    },
    {
      "class": "symbolInstance",
      "id": "0B9B1A58-196C-4A72-9CCE-91FBFF881363"
    }
  ],
  "name": "weekenddays",
  "nameIsFixed": true,
  "resizingConstraint": 63,
  "resizingType": 0,
  "rotation": 0,
  "shouldBreakMaskChain": false,
  "style": {
    "_class": "style",
    "endDecorationType": 0,
    "miterLimit": 10,
    "startDecorationType": 0
  }
}