{
  "_class": "group",
  "do_objectID": "415151C5-2C4D-454A-A653-F03CB8C26D17",
  "exportOptions": {
    "_class": "exportOptions",
    "exportFormats": [
    ],
    "includedLayerIds": [
    ],
    "layerOptions": 0,
    "shouldTrim": false
  },
  "frame": {
    "_class": "rect",
    "constrainProportions": false,
    "height": 5,
    "width": 7.111111111111109,
    "x": 4.444444444444445,
    "y": 4.25
  },
  "hasClickThrough": false,
  "isFlippedHorizontal": false,
  "isFlippedVertical": false,
  "isLocked": false,
  "isVisible": true,
  "layerListExpandedType": 2,
  "layers": [
    {
      "class": "shapeGroup",
      "id": "4550B5BB-28FF-40E8-AB2C-2175AC78B065"
    },
    {
      "class": "shapeGroup",
      "id": "57915204-F3F9-46B9-90E5-8C3A815C1388"
    }
  ],
  "name": "Group 2",
  "nameIsFixed": false,
  "resizingConstraint": 63,
  "resizingType": 0,
  "rotation": 0,
  "shouldBreakMaskChain": false,
  "style": {
    "_class": "style",
    "endDecorationType": 0,
    "miterLimit": 10,
    "startDecorationType": 0
  }
}