{
  "_class": "group",
  "do_objectID": "CD986202-90B2-40B5-99B1-4BB688ABDFD0",
  "exportOptions": {
    "_class": "exportOptions",
    "exportFormats": [
    ],
    "includedLayerIds": [
    ],
    "layerOptions": 0,
    "shouldTrim": false
  },
  "frame": {
    "_class": "rect",
    "constrainProportions": false,
    "height": 40,
    "width": 220,
    "x": 0,
    "y": 0
  },
  "hasClickThrough": false,
  "isFlippedHorizontal": false,
  "isFlippedVertical": false,
  "isLocked": false,
  "isVisible": true,
  "layerListExpandedType": 0,
  "layers": [
    {
      "class": "shapeGroup",
      "id": "E0D8E5DE-3046-4EF3-BD7C-824B049A840E"
    },
    {
      "class": "text",
      "id": "FE657D32-D22F-40A1-9D1C-2E5292363438"
    },
    {
      "class": "group",
      "id": "9ABC65C0-B8FF-413E-B612-4B53488F3D51"
    }
  ],
  "name": "💡tab",
  "nameIsFixed": false,
  "resizingConstraint": 63,
  "resizingType": 0,
  "rotation": 0,
  "shouldBreakMaskChain": false,
  "style": {
    "_class": "style",
    "endDecorationType": 0,
    "miterLimit": 10,
    "startDecorationType": 0
  }
}