{
  "_class": "group",
  "do_objectID": "17E1B7C6-C2E4-4DA3-A96E-A91BEA5FAE4A",
  "exportOptions": {
    "_class": "exportOptions",
    "exportFormats": [
    ],
    "includedLayerIds": [
    ],
    "layerOptions": 0,
    "shouldTrim": false
  },
  "frame": {
    "_class": "rect",
    "constrainProportions": false,
    "height": 20.7843137254902,
    "width": 16.96290050590219,
    "x": 55.73524451939291,
    "y": 15.58823529411765
  },
  "hasClickThrough": false,
  "isFlippedHorizontal": false,
  "isFlippedVertical": false,
  "isLocked": false,
  "isVisible": true,
  "layerListExpandedType": 0,
  "layers": [
    {
      "class": "shapeGroup",
      "id": "5DC4B61E-6CA0-4F7C-AE2F-1FE03F77486E"
    },
    {
      "class": "text",
      "id": "7CD95355-B70B-461D-8636-97EB6314069D"
    }
  ],
  "name": "count-badge",
  "nameIsFixed": true,
  "resizingConstraint": 63,
  "resizingType": 0,
  "rotation": 0,
  "shouldBreakMaskChain": false,
  "style": {
    "_class": "style",
    "endDecorationType": 0,
    "miterLimit": 10,
    "startDecorationType": 0
  }
}