{
  "_class": "group",
  "do_objectID": "8631CE46-FA92-485A-A1C9-06CB0AC60E2E",
  "exportOptions": {
    "_class": "exportOptions",
    "exportFormats": [
    ],
    "includedLayerIds": [
    ],
    "layerOptions": 0,
    "shouldTrim": false
  },
  "frame": {
    "_class": "rect",
    "constrainProportions": false,
    "height": 40,
    "width": 220,
    "x": 0,
    "y": 0
  },
  "hasClickThrough": false,
  "isFlippedHorizontal": false,
  "isFlippedVertical": false,
  "isLocked": false,
  "isVisible": true,
  "layerListExpandedType": 0,
  "layers": [
    {
      "class": "shapeGroup",
      "id": "1D1E0F43-6A7A-4788-ABEE-66F30E061FB7"
    },
    {
      "class": "text",
      "id": "E259B9B4-C07A-4EFB-827D-5F31E6C4A77C"
    },
    {
      "class": "group",
      "id": "5477C16A-B210-4383-873E-D92EF74F7351"
    }
  ],
  "name": "💡tab",
  "nameIsFixed": false,
  "resizingConstraint": 63,
  "resizingType": 0,
  "rotation": 0,
  "shouldBreakMaskChain": false,
  "style": {
    "_class": "style",
    "endDecorationType": 0,
    "miterLimit": 10,
    "startDecorationType": 0
  }
}