{
  "_class": "symbolInstance",
  "do_objectID": "AFF5694A-1A9E-4AEF-BBBA-AB5EC3DCB8F8",
  "exportOptions": {
    "_class": "exportOptions",
    "exportFormats": [
    ],
    "includedLayerIds": [
    ],
    "layerOptions": 0,
    "shouldTrim": false
  },
  "frame": {
    "_class": "rect",
    "constrainProportions": false,
    "height": 16,
    "width": 62,
    "x": 217,
    "y": 23
  },
  "horizontalSpacing": 0,
  "isFlippedHorizontal": false,
  "isFlippedVertical": false,
  "isLocked": false,
  "isVisible": true,
  "layerListExpandedType": 0,
  "masterInfluenceEdgeMaxXPadding": 0,
  "masterInfluenceEdgeMaxYPadding": 0,
  "masterInfluenceEdgeMinXPadding": 0,
  "masterInfluenceEdgeMinYPadding": 0,
  "name": "global-components/labels/issuable-label/small copy 2",
  "nameIsFixed": false,
  "overrides": {
    "9FC91C4D-FA44-43A3-9AE2-EE2ED9011F66": "Security",
    "D876D792-B485-47D9-85DF-FF6005DE0690": {
      "symbolID": "5F5A17C0-5083-41D0-9912-C36AE15174C6"
    }
  },
  "resizingConstraint": 63,
  "resizingType": 0,
  "rotation": 0,
  "shouldBreakMaskChain": false,
  "style": {
    "_class": "style",
    "endDecorationType": 0,
    "miterLimit": 10,
    "startDecorationType": 0
  },
  "symbolID": "BE4E8AC2-9522-48FE-826F-AB720F0C8326",
  "verticalSpacing": 0
}