{
  "_class": "group",
  "do_objectID": "1F7FB4E7-7102-46D7-986C-C1B31698014F",
  "exportOptions": {
    "_class": "exportOptions",
    "exportFormats": [
    ],
    "includedLayerIds": [
    ],
    "layerOptions": 0,
    "shouldTrim": false
  },
  "frame": {
    "_class": "rect",
    "constrainProportions": false,
    "height": 779,
    "width": 1802,
    "x": -138,
    "y": 94
  },
  "hasClickThrough": false,
  "isFlippedHorizontal": false,
  "isFlippedVertical": false,
  "isLocked": false,
  "isVisible": true,
  "layerListExpandedType": 2,
  "layers": [
    {
      "class": "group",
      "id": "A62DE6A7-8361-4602-9F2F-0FB5B1257D27"
    },
    {
      "class": "shapeGroup",
      "id": "73B2535A-55A1-4AC7-B7E2-F65B8C36B95B"
    },
    {
      "class": "group",
      "id": "A5349B24-CDF3-473B-B239-ADDAC06691FE"
    },
    {
      "class": "group",
      "id": "CC1F2884-A76C-4044-8F01-5BB628CC86FF"
    },
    {
      "class": "group",
      "id": "1598A263-7899-4A03-9E08-90372230E919"
    },
    {
      "class": "group",
      "id": "24B8A682-0EA5-401E-845E-E8C848F39D8D"
    },
    {
      "class": "group",
      "id": "3C17BF1C-D464-4CD0-9175-D61673D71B09"
    },
    {
      "class": "group",
      "id": "44DBBA03-63A1-4658-B626-4659ECA68C1D"
    },
    {
      "class": "group",
      "id": "F5D6E595-2B39-4289-B0AF-352F0B010B01"
    },
    {
      "class": "group",
      "id": "42FC0D47-C3EF-4ECB-BC9A-3DB1237C6444"
    },
    {
      "class": "group",
      "id": "0823AA09-5F16-422F-8B62-861786945313"
    }
  ],
  "name": "ganttchart",
  "nameIsFixed": true,
  "resizingConstraint": 63,
  "resizingType": 0,
  "rotation": 0,
  "shouldBreakMaskChain": false,
  "style": {
    "_class": "style",
    "endDecorationType": 0,
    "miterLimit": 10,
    "startDecorationType": 0
  }
}