{
  "_class": "shapeGroup",
  "clippingMaskMode": 0,
  "do_objectID": "2F8991C1-E27F-49FE-A0F1-191C02A5E4FA",
  "exportOptions": {
    "_class": "exportOptions",
    "exportFormats": [
    ],
    "includedLayerIds": [
    ],
    "layerOptions": 0,
    "shouldTrim": false
  },
  "frame": {
    "_class": "rect",
    "constrainProportions": false,
    "height": 4,
    "width": 8,
    "x": 44,
    "y": 24
  },
  "hasClickThrough": false,
  "hasClippingMask": false,
  "isFlippedHorizontal": false,
  "isFlippedVertical": false,
  "isLocked": false,
  "isVisible": true,
  "layerListExpandedType": 1,
  "layers": [
    {
      "class": "triangle",
      "id": "8F6FB498-8CDD-4D7E-A96D-1CD1BCFE2625"
    }
  ],
  "name": "Triangle",
  "nameIsFixed": false,
  "resizingConstraint": 37,
  "resizingType": 0,
  "rotation": 0,
  "shouldBreakMaskChain": false,
  "style": {
    "sharedObjectID": "FBAAE206-1B7D-4559-A64D-AF713EE8FE68"
  },
  "windingRule": 1
}